GENERATION_PROJECT,build_year,gen_overnight_cost,gen_fixed_om,gen_storage_energy_to_power_ratio,gen_storage_energy_overnight_cost
Solar,2021,1.301826999040459e6,15246.183159086235,.,.
Solar,2022,1.2501111411986349e6,14640.519394648356,.,.
Solar,2023,1.1983952833568119e6,14034.85563021048,.,.
Solar,2024,1.1466794255149881e6,13429.191865772606,.,.
Solar,2025,1.094963567673165e6,12823.528101334727,.,.
Solar,2026,1.0432477098313414e6,12217.864336896848,.,.
Solar,2027,991531.8519895177,11612.200572458976,.,.
Solar,2028,939815.994147694,11006.5368080211,.,.
Solar,2029,888100.1363058704,10400.87304358322,.,.
Solar,2030,836384.2784640469,9795.209279145349,.,.
Solar,2031,828954.628973797,9708.197873620915,.,.
Solar,2032,821524.9794835469,9621.186468096483,.,.
Solar,2033,814095.3299932968,9534.175062572047,.,.
Solar,2034,806665.6805030467,9447.163657047618,.,.
Solar,2035,799236.0310127966,9360.152251523185,.,.
Wind,2021,1.492622341665345e6,42141.538461538454,.,.
Wind,2022,1.4656772810738266e6,41786.92307692306,.,.
Wind,2023,1.4380822458724303e6,41432.30769230768,.,.
Wind,2024,1.4098372360611565e6,41077.6923076923,.,.
Wind,2025,1.3809422516400055e6,40723.07692307693,.,.
Wind,2026,1.3513972926089764e6,40368.46153846154,.,.
Wind,2027,1.3212023589680705e6,40013.846153846156,.,.
Wind,2028,1.2903574507172867e6,39659.23076923077,.,.
Wind,2029,1.2588625678566245e6,39304.6153846154,.,.
Wind,2030,1.226717710386085e6,38950.0,.,.
Wind,2031,1.2143695204051014e6,38657.875,.,.
Wind,2032,1.201985279365899e6,38365.750000000015,.,.
Wind,2033,1.1895649872684756e6,38073.62500000001,.,.
Wind,2034,1.1771086441128326e6,37781.50000000001,.,.
Wind,2035,1.1646162498989687e6,37489.375,.,.
CCGT,2021,1.0547470319208577e6,12863.45776031434,.,.
CCGT,2022,1.0435534628814093e6,12863.45776031434,.,.
CCGT,2023,1.0323598938419612e6,12863.45776031434,.,.
CCGT,2024,1.0181696417346126e6,12863.45776031434,.,.
CCGT,2025,1.0080019363728217e6,12863.45776031434,.,.
CCGT,2026,1.001987541027846e6,12863.45776031434,.,.
CCGT,2027,995377.2256082576,12863.45776031434,.,.
CCGT,2028,990958.0485495949,12863.45776031434,.,.
CCGT,2029,987737.4480919305,12863.45776031434,.,.
CCGT,2030,983235.1768172141,12863.45776031434,.,.
CCGT,2031,979319.65541139,12863.45776031434,.,.
CCGT,2032,975100.4685614647,12863.45776031434,.,.
CCGT,2033,970371.9652346717,12863.45776031434,.,.
CCGT,2034,966972.1654136493,12863.45776031434,.,.
CCGT,2035,964264.3160018083,12863.45776031434,.,.
CT,2021,968927.3771036323,11394.891944990175,.,.
CT,2022,964249.0157041437,11394.891944990175,.,.
CT,2023,953168.2835959523,11394.891944990175,.,.
CT,2024,936035.6065825713,11394.891944990175,.,.
CT,2025,924722.930808068,11394.891944990175,.,.
CT,2026,917898.6180212427,11394.891944990175,.,.
CT,2027,910532.7480840062,11394.891944990175,.,.
CT,2028,905725.7570940664,11394.891944990175,.,.
CT,2029,902489.2852620716,11394.891944990175,.,.
CT,2030,897990.4103336505,11394.891944990175,.,.
CT,2031,894135.1136733557,11394.891944990175,.,.
CT,2032,890010.8879475131,11394.891944990175,.,.
CT,2033,885303.7237808913,11394.891944990175,.,.
CT,2034,881901.2196216983,11394.891944990175,.,.
CT,2035,879447.8402080905,11394.891944990175,.,.
Battery,2021,1.365e6,34110.0,4,0.0
Battery,2022,1.274e6,31860.0,4,0.0
Battery,2023,1.184e6,29610.0,4,0.0
Battery,2024,1.094e6,27350.0,4,0.0
Battery,2025,1.004e6,25100.0,4,0.0
Battery,2026,967000.0,24170.0,4,0.0
Battery,2027,929000.0,23230.0,4,0.0
Battery,2028,892000.0,22300.0,4,0.0
Battery,2029,855000.0,21370.0,4,0.0
Battery,2030,817000.0,20430.0,4,0.0
Battery,2031,807000.0,20180.0,4,0.0
Battery,2032,797000.0,19920.0,4,0.0
Battery,2033,787000.0,19660.0,4,0.0
Battery,2034,776000.0,19410.0,4,0.0
Battery,2035,766000.0,19150.0,4,0.0
Geo,2021,6.397333038887256e6,134740.70000000007,.,.
Geo,2022,6.297657670587702e6,133832.20000000007,.,.
Geo,2023,6.198386167139521e6,132923.7,.,.
Geo,2024,6.099518528542712e6,132015.20000000004,.,.
Geo,2025,6.001054754797277e6,131106.70000000004,.,.
Geo,2026,5.902994845903218e6,130198.20000000004,.,.
Geo,2027,5.805338801860531e6,129289.70000000004,.,.
Geo,2028,5.708086622669218e6,128381.20000000004,.,.
Geo,2029,5.611238308329277e6,127472.70000000003,.,.
Geo,2030,5.513712956551491e6,126564.20000000004,.,.
Geo,2031,5.486144391768734e6,126564.20000000004,.,.
Geo,2032,5.45871366980989e6,126564.20000000004,.,.
Geo,2033,5.431420101460841e6,126564.20000000004,.,.
Geo,2034,5.4042630009535365e6,126564.20000000004,.,.
Geo,2035,5.37724168594877e6,126564.20000000004,.,.
Old_CCGT,2020,1.0e9,12000.0,.,.
Old_CT,2020,1.0e9,12000.0,.,.
Old_Coal,2020,1.0e9,20000.0,.,.
Old_Steam,2020,1.0e9,20000.0,.,.
