PERIOD,carbon_cap_tco2_per_yr,carbon_cost_dollar_per_tco2
2020,.,76.421
2021,.,77.727
2022,.,79.033
2023,.,80.339
2024,.,81.645
2025,.,82.951
2026,.,84.257
2027,.,85.563
2028,.,86.869
2029,.,88.175
2030,.,89.481
2031,.,90.844
2032,.,92.207
2033,.,93.57
2034,.,94.934
2035,.,96.297
2036,.,97.66
2037,.,99.023
2038,.,100.387
2039,.,101.75
2040,.,103.113
2041,.,104.449
2042,.,105.785
2043,.,107.12
2044,.,108.456
2045,.,109.792
2046,.,111.128
2047,.,112.464
2048,.,113.799
2049,.,115.135
2050,.,116.471
