GEN_BLD_YRS_1,GEN_BLD_YRS_2,BuildGen
Battery,2021,0.0
Battery,2022,0.0
Battery,2023,0.0
Battery,2024,0.0
Battery,2025,0.0
Battery,2026,0.0
Battery,2027,0.0
Battery,2028,0.0
Battery,2029,0.0
Battery,2030,0.0
Battery,2031,0.0
Battery,2032,0.0
Battery,2033,0.0
Battery,2034,162.29739
Battery,2035,458.325
CCGT,2021,459.50622
CCGT,2022,45.799771
CCGT,2023,0.0
CCGT,2024,0.0
CCGT,2025,112.84837
CCGT,2026,0.0
CCGT,2027,0.0
CCGT,2028,0.0
CCGT,2029,0.0
CCGT,2030,0.0
CCGT,2031,0.0
CCGT,2032,0.0
CCGT,2033,0.0
CCGT,2034,97.918049
CCGT,2035,246.2433
CT,2021,0.0
CT,2022,0.0
CT,2023,0.0
CT,2024,0.0
CT,2025,0.0
CT,2026,0.0
CT,2027,0.0
CT,2028,0.0
CT,2029,0.0
CT,2030,0.0
CT,2031,0.0
CT,2032,0.0
CT,2033,0.0
CT,2034,0.0
CT,2035,0.0
Geo,2021,0.0
Geo,2022,0.0
Geo,2023,0.0
Geo,2024,0.0
Geo,2025,0.0
Geo,2026,0.0
Geo,2027,0.0
Geo,2028,0.0
Geo,2029,0.0
Geo,2030,0.0
Geo,2031,0.0
Geo,2032,0.0
Geo,2033,0.0
Geo,2034,0.0
Geo,2035,0.0
Old_CCGT,2020,1836.0
Old_CT,2020,1039.0
Old_Coal,2020,2438.0
Old_Steam,2020,310.0
Solar,2021,930.9
Solar,2022,0.0
Solar,2023,0.0
Solar,2024,0.0
Solar,2025,0.0
Solar,2026,0.0
Solar,2027,0.0
Solar,2028,0.0
Solar,2029,0.0
Solar,2030,320.86863
Solar,2031,291.60091
Solar,2032,0.0
Solar,2033,0.0
Solar,2034,699.72417
Solar,2035,685.91688
Wind,2021,3537.3
Wind,2022,0.0
Wind,2023,0.0
Wind,2024,0.0
Wind,2025,0.0
Wind,2026,0.0
Wind,2027,0.0
Wind,2028,0.0
Wind,2029,0.0
Wind,2030,0.0
Wind,2031,0.0
Wind,2032,0.0
Wind,2033,0.0
Wind,2034,0.0
Wind,2035,0.0
