PERIOD,Component,Component_type,AnnualCost_NPV,AnnualCost_Real
2021,TotalGenFixedCosts,annual,354099895107.3267,366493391436.084
2021,StorageEnergyFixedCost,annual,0.0,0.0
2022,TotalGenFixedCosts,annual,342128652669.26904,366496765955.6385
2022,StorageEnergyFixedCost,annual,0.0,0.0
2023,TotalGenFixedCosts,annual,330559084704.6077,366496765955.6385
2023,StorageEnergyFixedCost,annual,0.0,0.0
2024,TotalGenFixedCosts,annual,319380758168.7032,366496765955.6385
2024,StorageEnergyFixedCost,annual,0.0,0.0
2025,TotalGenFixedCosts,annual,308587246526.56,366504846796.8722
2025,StorageEnergyFixedCost,annual,0.0,0.0
2026,TotalGenFixedCosts,annual,298151929011.1691,366504846796.8722
2026,StorageEnergyFixedCost,annual,0.0,0.0
2027,TotalGenFixedCosts,annual,288069496629.14886,366504846796.8722
2027,StorageEnergyFixedCost,annual,0.0,0.0
2028,TotalGenFixedCosts,annual,278328016066.81055,366504846796.8722
2028,StorageEnergyFixedCost,annual,0.0,0.0
2029,TotalGenFixedCosts,annual,268915957552.474,366504846796.8722
2029,StorageEnergyFixedCost,annual,0.0,0.0
2030,TotalGenFixedCosts,annual,259836785501.29437,366525447591.9028
2030,StorageEnergyFixedCost,annual,0.0,0.0
2031,TotalGenFixedCosts,annual,251062743747.5971,366544002999.39685
2031,StorageEnergyFixedCost,annual,0.0,0.0
2032,TotalGenFixedCosts,annual,242572699273.0407,366544002999.39685
2032,StorageEnergyFixedCost,annual,0.0,0.0
2033,TotalGenFixedCosts,annual,234369757751.7302,366544002999.39685
2033,StorageEnergyFixedCost,annual,0.0,0.0
2034,TotalGenFixedCosts,annual,226484606923.07556,366609392649.21545
2034,StorageEnergyFixedCost,annual,0.0,0.0
2035,TotalGenFixedCosts,annual,218886403724.78113,366711080547.858
2035,StorageEnergyFixedCost,annual,0.0,0.0
2036,TotalGenFixedCosts,annual,211484448043.2668,366711080547.858
2036,StorageEnergyFixedCost,annual,0.0,0.0
2037,TotalGenFixedCosts,annual,204332800041.80368,366711080547.858
2037,StorageEnergyFixedCost,annual,0.0,0.0
2038,TotalGenFixedCosts,annual,197422995209.4722,366711080547.858
2038,StorageEnergyFixedCost,annual,0.0,0.0
2039,TotalGenFixedCosts,annual,190746855274.8524,366711080547.858
2039,StorageEnergyFixedCost,annual,0.0,0.0
2040,TotalGenFixedCosts,annual,184296478526.4274,366711080547.858
2040,StorageEnergyFixedCost,annual,0.0,0.0
2041,TotalGenFixedCosts,annual,178064230460.31635,366711080547.858
2041,StorageEnergyFixedCost,annual,0.0,0.0
2042,TotalGenFixedCosts,annual,172042734744.26703,366711080547.858
2042,StorageEnergyFixedCost,annual,0.0,0.0
2043,TotalGenFixedCosts,annual,166224864487.21454,366711080547.858
2043,StorageEnergyFixedCost,annual,0.0,0.0
2044,TotalGenFixedCosts,annual,160603733804.07202,366711080547.858
2044,StorageEnergyFixedCost,annual,0.0,0.0
2045,TotalGenFixedCosts,annual,155172689665.77008,366711080547.858
2045,StorageEnergyFixedCost,annual,0.0,0.0
2046,TotalGenFixedCosts,annual,149925304024.89865,366711080547.858
2046,StorageEnergyFixedCost,annual,0.0,0.0
2047,TotalGenFixedCosts,annual,144855366207.63153,366711080547.858
2047,StorageEnergyFixedCost,annual,0.0,0.0
2048,TotalGenFixedCosts,annual,139956875562.92905,366711080547.858
2048,StorageEnergyFixedCost,annual,0.0,0.0
2049,TotalGenFixedCosts,annual,135218398484.55421,366695796740.5014
2049,StorageEnergyFixedCost,annual,0.0,0.0
2021,GenVariableOMCostsInTP,timepoint,39132841.78652739,40502491.24905594
2021,FuelCostsPerTP,timepoint,353906357.7515293,366293080.2728336
2022,GenVariableOMCostsInTP,timepoint,34216843.74904463,36653938.44507041
2022,FuelCostsPerTP,timepoint,289555214.3891556,310178784.5340239
2023,GenVariableOMCostsInTP,timepoint,30358675.066975825,33659205.70807299
2023,FuelCostsPerTP,timepoint,253564277.406545,281131246.8220957
2024,GenVariableOMCostsInTP,timepoint,31860212.833113775,36560327.03080592
2024,FuelCostsPerTP,timepoint,266406011.1199021,305707025.2648478
2025,GenVariableOMCostsInTP,timepoint,32475440.744370498,38570636.24193547
2025,FuelCostsPerTP,timepoint,290043043.6434089,344480150.9834163
2026,GenVariableOMCostsInTP,timepoint,33800750.40135929,41549752.4653125
2026,FuelCostsPerTP,timepoint,300535838.16292053,369435279.81918406
2027,GenVariableOMCostsInTP,timepoint,27452080.08702661,34926712.21453122
2027,FuelCostsPerTP,timepoint,235664161.8203391,299830626.0612841
2028,GenVariableOMCostsInTP,timepoint,29654602.979475144,39049449.190934815
2028,FuelCostsPerTP,timepoint,268022778.05927217,352934816.2604869
2029,GenVariableOMCostsInTP,timepoint,26784790.09685138,36504919.5305464
2029,FuelCostsPerTP,timepoint,229118519.24326718,312265023.4588405
2030,GenVariableOMCostsInTP,timepoint,27404040.55372474,38656105.64109515
2030,FuelCostsPerTP,timepoint,251997557.11400822,355467441.744571
2031,GenVariableOMCostsInTP,timepoint,28691523.250618085,41888755.08747193
2031,FuelCostsPerTP,timepoint,271187708.6509696,395925842.3188962
2032,GenVariableOMCostsInTP,timepoint,22881664.245617207,34575765.669475086
2032,FuelCostsPerTP,timepoint,202371324.85101077,305796966.12802166
2033,GenVariableOMCostsInTP,timepoint,24877519.48369678,38907347.36308951
2033,FuelCostsPerTP,timepoint,230552020.40423328,360573229.5379412
2034,GenVariableOMCostsInTP,timepoint,26139245.312377896,42311453.20853747
2034,FuelCostsPerTP,timepoint,241273655.3893487,390548344.3940539
2035,GenVariableOMCostsInTP,timepoint,22529171.62874851,37744221.34603862
2035,FuelCostsPerTP,timepoint,192857729.39892295,323103971.4500026
2036,GenVariableOMCostsInTP,timepoint,17856992.991052076,30963776.55979947
2036,FuelCostsPerTP,timepoint,142698024.1327788,247436381.7573472
2037,GenVariableOMCostsInTP,timepoint,18664944.251385666,33497519.112892535
2037,FuelCostsPerTP,timepoint,150041672.51200235,269276121.3218215
2038,GenVariableOMCostsInTP,timepoint,18495116.276767056,34354478.653893456
2038,FuelCostsPerTP,timepoint,147756407.34708345,274455930.21536094
2039,GenVariableOMCostsInTP,timepoint,22410959.622381665,43085099.39729257
2039,FuelCostsPerTP,timepoint,207395112.65154704,398717377.2862736
2040,GenVariableOMCostsInTP,timepoint,20939938.524498172,41666056.47770594
2040,FuelCostsPerTP,timepoint,190815164.71370104,379681889.7277237
2041,GenVariableOMCostsInTP,timepoint,18606781.772642795,38319392.00660899
2041,FuelCostsPerTP,timepoint,161317079.58546096,332221470.94159347
2042,GenVariableOMCostsInTP,timepoint,18779047.449887462,40027757.01190838
2042,FuelCostsPerTP,timepoint,167429271.72937885,356877430.7295613
2043,GenVariableOMCostsInTP,timepoint,19573538.101158727,43181465.83763755
2043,FuelCostsPerTP,timepoint,186624411.49712613,411714816.6000351
2044,GenVariableOMCostsInTP,timepoint,19887720.19282815,45410198.0620363
2044,FuelCostsPerTP,timepoint,192895156.01027796,440443004.7639601
2045,GenVariableOMCostsInTP,timepoint,18709831.369151864,44215915.13963037
2045,FuelCostsPerTP,timepoint,176052883.49044532,416056093.87454545
2046,GenVariableOMCostsInTP,timepoint,15726940.564650588,38467444.87653111
2046,FuelCostsPerTP,timepoint,146864755.1299907,359225104.7839878
2047,GenVariableOMCostsInTP,timepoint,14683941.730462814,37173383.90461445
2047,FuelCostsPerTP,timepoint,128877353.1231677,326261668.1676982
2048,GenVariableOMCostsInTP,timepoint,17356373.978697922,45476684.37524697
2048,FuelCostsPerTP,timepoint,173147010.69494575,453674941.87183213
2049,GenVariableOMCostsInTP,timepoint,14700044.620846791,39864727.24699574
2049,FuelCostsPerTP,timepoint,141944963.70903805,384937420.82393414
