PERIOD,carbon_cap_tco2_per_yr,carbon_cost_dollar_per_tco2
2020,.,51.082
2021,.,52.15
2022,.,53.219
2023,.,54.287
2024,.,55.355
2025,.,56.423
2026,.,57.491
2027,.,58.56
2028,.,59.628
2029,.,60.696
2030,.,61.764
2031,.,62.908
2032,.,64.052
2033,.,65.196
2034,.,66.34
2035,.,67.484
2036,.,68.628
2037,.,69.772
2038,.,70.916
2039,.,72.06
2040,.,73.204
2041,.,74.35
2042,.,75.496
2043,.,76.642
2044,.,77.788
2045,.,78.933
2046,.,80.079
2047,.,81.225
2048,.,82.371
2049,.,83.516
2050,.,84.662
