load_zone,fuel,period,fuel_cost
PSCO,Coal,2021,1.34
PSCO,Coal,2022,1.34
PSCO,Coal,2023,1.34
PSCO,Coal,2024,1.34
PSCO,Coal,2025,1.34
PSCO,Coal,2026,1.34
PSCO,Coal,2027,1.34
PSCO,Coal,2028,1.34
PSCO,Coal,2029,1.34
PSCO,Coal,2030,1.34
PSCO,Coal,2031,1.34
PSCO,Coal,2032,1.34
PSCO,Coal,2033,1.34
PSCO,Coal,2034,1.34
PSCO,Coal,2035,1.34
PSCO,Coal,2036,1.34
PSCO,Coal,2037,1.34
PSCO,Coal,2038,1.34
PSCO,Coal,2039,1.34
PSCO,Coal,2040,1.34
PSCO,Coal,2041,1.34
PSCO,Coal,2042,1.34
PSCO,Coal,2043,1.34
PSCO,Coal,2044,1.34
PSCO,Coal,2045,1.34
PSCO,Coal,2046,1.34
PSCO,Coal,2047,1.34
PSCO,Coal,2048,1.34
PSCO,Coal,2049,1.34
PSCO,NaturalGas,2021,2.73
PSCO,NaturalGas,2022,2.3618
PSCO,NaturalGas,2023,2.535456
PSCO,NaturalGas,2024,2.56945416
PSCO,NaturalGas,2025,2.628749256
PSCO,NaturalGas,2026,2.648487934624
PSCO,NaturalGas,2027,2.67524399020928
PSCO,NaturalGas,2028,2.708551663729766
PSCO,NaturalGas,2029,2.799010344294074
PSCO,NaturalGas,2030,2.8847672569703184
PSCO,NaturalGas,2031,2.9496328328640433
PSCO,NaturalGas,2032,2.9546986842667464
PSCO,NaturalGas,2033,3.013312219141631
PSCO,NaturalGas,2034,3.0530188853626123
PSCO,NaturalGas,2035,3.097468379461846
PSCO,NaturalGas,2036,3.138918686242966
PSCO,NaturalGas,2037,3.1195681757536557
PSCO,NaturalGas,2038,3.1564818595038733
PSCO,NaturalGas,2039,3.2115252285594913
PSCO,NaturalGas,2040,3.263104270109083
PSCO,NaturalGas,2041,3.2779551413175128
PSCO,NaturalGas,2042,3.343247200955161
PSCO,NaturalGas,2043,3.4046163961507756
PSCO,NaturalGas,2044,3.468476997479706
PSCO,NaturalGas,2045,3.4976323113715644
PSCO,NaturalGas,2046,3.5363033165043345
PSCO,NaturalGas,2047,3.5424586567480794
PSCO,NaturalGas,2048,3.5759316383794544
PSCO,NaturalGas,2049,3.566890384966372
