TIMESERIES,ts_period,ts_duration_of_tp,ts_num_tps,ts_scale_to_period
PC2021-02-7||PC2021-03-6==>dark,2021,1,168,4.740259740259741
PC2021-04-4||PC2021-05-3==>darkcalm,2021,1,168,4.740259740259741
PC2021-11-2||PC2021-12-1==>random,2021,1,168,4.740259740259741
PC2021-12-3||PC2021-13-2==>random,2021,1,168,4.740259740259741
PC2021-14-4||PC2021-15-3==>random,2021,1,168,4.740259740259741
PC2021-28-2||PC2021-29-1==>hot,2021,1,168,4.740259740259741
PC2021-31-4||PC2021-32-3==>random,2021,1,168,4.740259740259741
PC2021-32-5||PC2021-33-4==>random,2021,1,168,4.740259740259741
PC2021-40-4||PC2021-41-3==>random,2021,1,168,4.740259740259741
PC2021-42-3||PC2021-43-2==>random,2021,1,168,4.740259740259741
PC2021-52-7||PC2022-01-6==>random,2021,1,168,4.740259740259741
PC2022-05-1||PC2022-05-7==>dark,2022,1,168,4.620253164556962
PC2022-08-4||PC2022-09-3==>random,2022,1,168,4.620253164556962
PC2022-13-5||PC2022-14-4==>random,2022,1,168,4.620253164556962
PC2022-21-2||PC2022-22-1==>random,2022,1,168,4.620253164556962
PC2022-23-3||PC2022-24-2==>random,2022,1,168,4.620253164556962
PC2022-29-1||PC2022-29-7==>hot,2022,1,168,4.620253164556962
PC2022-33-5||PC2022-34-4==>random,2022,1,168,4.620253164556962
PC2022-36-5||PC2022-37-4==>random,2022,1,168,4.620253164556962
PC2022-43-1||PC2022-43-7==>random,2022,1,168,4.620253164556962
PC2022-45-4||PC2022-46-3==>random,2022,1,168,4.620253164556962
PC2022-49-2||PC2022-50-3==>calm-darkcalm,2022,1,216,4.620253164556962
PC2023-01-3||PC2023-02-2==>random,2023,1,168,4.740259740259741
PC2023-02-4||PC2023-03-3==>random,2023,1,168,4.740259740259741
PC2023-05-2||PC2023-06-1==>dark,2023,1,168,4.740259740259741
PC2023-08-2||PC2023-09-1==>random,2023,1,168,4.740259740259741
PC2023-10-1||PC2023-10-7==>random,2023,1,168,4.740259740259741
PC2023-17-1||PC2023-17-7==>random,2023,1,168,4.740259740259741
PC2023-25-6||PC2023-26-5==>hot,2023,1,168,4.740259740259741
PC2023-30-6||PC2023-31-5==>darkcalm,2023,1,168,4.740259740259741
PC2023-36-1||PC2023-36-7==>random,2023,1,168,4.740259740259741
PC2023-40-1||PC2023-40-7==>random,2023,1,168,4.740259740259741
PC2023-46-5||PC2023-47-4==>random,2023,1,168,4.740259740259741
PC2024-04-3||PC2024-05-2==>random,2024,1,168,4.345238095238095
PC2024-12-7||PC2024-13-6==>random,2024,1,168,4.345238095238095
PC2024-16-5||PC2024-17-4==>random,2024,1,168,4.345238095238095
PC2024-19-1||PC2024-19-7==>random,2024,1,168,4.345238095238095
PC2024-20-5||PC2024-21-4==>random,2024,1,168,4.345238095238095
PC2024-21-6||PC2024-22-5==>random,2024,1,168,4.345238095238095
PC2024-27-7||PC2024-28-6==>hot,2024,1,168,4.345238095238095
PC2024-31-4||PC2024-32-3==>darkcalm,2024,1,168,4.345238095238095
PC2024-32-6||PC2024-33-5==>calm,2024,1,168,4.345238095238095
PC2024-35-5||PC2024-36-4==>random,2024,1,168,4.345238095238095
PC2024-37-1||PC2024-37-7==>dark,2024,1,168,4.345238095238095
PC2024-46-4||PC2024-47-3==>random,2024,1,168,4.345238095238095
PC2025-07-1||PC2025-07-7==>random,2025,1,168,4.506172839506172
PC2025-09-6||PC2025-10-5==>random,2025,1,168,4.506172839506172
PC2025-10-7||PC2025-11-6==>random,2025,1,168,4.506172839506172
PC2025-19-5||PC2025-20-4==>random,2025,1,168,4.506172839506172
PC2025-22-7||PC2025-23-6==>random,2025,1,168,4.506172839506172
PC2025-27-5||PC2025-28-4==>random,2025,1,168,4.506172839506172
PC2025-29-7||PC2025-30-6==>hot,2025,1,168,4.506172839506172
PC2025-32-3||PC2025-33-2==>calm,2025,1,168,4.506172839506172
PC2025-41-6||PC2025-42-5==>random,2025,1,168,4.506172839506172
PC2025-48-7||PC2025-49-6==>random,2025,1,168,4.506172839506172
PC2025-50-5||PC2025-52-1==>dark-darkcalm,2025,1,264,4.506172839506172
PC2026-03-7||PC2026-04-6==>random,2026,1,168,4.740259740259741
PC2026-16-7||PC2026-17-6==>random,2026,1,168,4.740259740259741
PC2026-18-5||PC2026-19-4==>random,2026,1,168,4.740259740259741
PC2026-23-2||PC2026-24-1==>random,2026,1,168,4.740259740259741
PC2026-29-4||PC2026-30-3==>random,2026,1,168,4.740259740259741
PC2026-33-1||PC2026-33-7==>hot,2026,1,168,4.740259740259741
PC2026-35-1||PC2026-35-7==>random,2026,1,168,4.740259740259741
PC2026-42-5||PC2026-43-4==>dark,2026,1,168,4.740259740259741
PC2026-47-1||PC2026-47-7==>random,2026,1,168,4.740259740259741
PC2026-48-3||PC2026-49-2==>random,2026,1,168,4.740259740259741
PC2026-53-1||PC2026-53-7==>darkcalm,2026,1,168,4.740259740259741
PC2027-01-1||PC2027-02-2==>dark-darkcalm,2027,1,216,4.62269129287599
PC2027-12-5||PC2027-13-4==>random,2027,1,168,4.62269129287599
PC2027-14-2||PC2027-15-1==>random,2027,1,168,4.62269129287599
PC2027-16-6||PC2027-17-5==>random,2027,1,168,4.62269129287599
PC2027-23-4||PC2027-24-3==>random,2027,1,168,4.62269129287599
PC2027-29-1||PC2027-29-7==>hot,2027,1,168,4.62269129287599
PC2027-34-4||PC2027-35-3==>calm,2027,1,168,4.62269129287599
PC2027-35-7||PC2027-36-6==>random,2027,1,168,4.62269129287599
PC2027-44-1||PC2027-44-7==>random,2027,1,167,4.62269129287599
PC2027-45-7||PC2027-46-6==>random,2027,1,168,4.62269129287599
PC2027-50-3||PC2027-51-2==>random,2027,1,168,4.62269129287599
PC2028-02-2||PC2028-03-3==>dark-darkcalm,2028,1,216,5.069444444444445
PC2028-09-7||PC2028-10-6==>random,2028,1,168,5.069444444444445
PC2028-16-1||PC2028-16-7==>random,2028,1,168,5.069444444444445
PC2028-23-7||PC2028-24-6==>random,2028,1,168,5.069444444444445
PC2028-29-3||PC2028-31-2==>hot-random,2028,1,336,5.069444444444445
PC2028-36-6||PC2028-37-5==>random,2028,1,168,5.069444444444445
PC2028-46-4||PC2028-47-3==>random,2028,1,168,5.069444444444445
PC2028-49-7||PC2028-50-6==>random,2028,1,168,5.069444444444445
PC2028-51-7||PC2028-52-6==>random,2028,1,168,5.069444444444445
PC2029-02-5||PC2029-03-4==>random,2029,1,168,4.740259740259741
PC2029-05-1||PC2029-05-7==>random,2029,1,168,4.740259740259741
PC2029-07-1||PC2029-07-7==>random,2029,1,168,4.740259740259741
PC2029-12-6||PC2029-13-5==>random,2029,1,168,4.740259740259741
PC2029-20-4||PC2029-21-3==>random,2029,1,168,4.740259740259741
PC2029-25-4||PC2029-26-3==>random,2029,1,168,4.740259740259741
PC2029-27-7||PC2029-28-6==>hot,2029,1,168,4.740259740259741
PC2029-30-2||PC2029-31-1==>random,2029,1,168,4.740259740259741
PC2029-35-7||PC2029-36-6==>darkcalm,2029,1,168,4.740259740259741
PC2029-38-6||PC2029-39-5==>random,2029,1,168,4.740259740259741
PC2029-51-6||PC2029-52-5==>dark,2029,1,168,4.740259740259741
PC2030-03-4||PC2030-04-3==>dark,2030,1,168,4.740259740259741
PC2030-05-1||PC2030-05-7==>darkcalm,2030,1,168,4.740259740259741
PC2030-09-3||PC2030-10-2==>random,2030,1,168,4.740259740259741
PC2030-14-7||PC2030-15-6==>random,2030,1,168,4.740259740259741
PC2030-21-5||PC2030-22-4==>random,2030,1,168,4.740259740259741
PC2030-28-6||PC2030-29-5==>hot,2030,1,168,4.740259740259741
PC2030-38-6||PC2030-39-5==>random,2030,1,168,4.740259740259741
PC2030-43-2||PC2030-44-1==>random,2030,1,168,4.740259740259741
PC2030-44-4||PC2030-45-3==>random,2030,1,168,4.740259740259741
PC2030-45-7||PC2030-46-6==>random,2030,1,168,4.740259740259741
PC2030-48-7||PC2030-49-6==>random,2030,1,168,4.740259740259741
PC2031-05-5||PC2031-06-4==>dark,2031,1,168,4.620253164556962
PC2031-07-1||PC2031-07-7==>random,2031,1,168,4.620253164556962
PC2031-18-4||PC2031-19-3==>random,2031,1,168,4.620253164556962
PC2031-21-1||PC2031-21-7==>random,2031,1,168,4.620253164556962
PC2031-25-1||PC2031-25-7==>random,2031,1,168,4.620253164556962
PC2031-29-5||PC2031-30-4==>hot,2031,1,168,4.620253164556962
PC2031-31-5||PC2031-32-4==>random,2031,1,168,4.620253164556962
PC2031-34-4||PC2031-35-3==>random,2031,1,168,4.620253164556962
PC2031-39-3||PC2031-40-2==>random,2031,1,168,4.620253164556962
PC2031-49-6||PC2031-50-7==>calm-darkcalm,2031,1,216,4.620253164556962
PC2031-51-4||PC2031-52-3==>random,2031,1,168,4.620253164556962
PC2032-05-6||PC2032-06-5==>dark,2032,1,168,4.7428262046561995
PC2032-08-1||PC2032-08-7==>random,2032,1,168,4.7428262046561995
PC2032-11-7||PC2032-12-6==>random,2032,1,168,4.7428262046561995
PC2032-13-2||PC2032-14-1==>random,2032,1,168,4.7428262046561995
PC2032-26-3||PC2032-27-2==>hot,2032,1,168,4.7428262046561995
PC2032-31-3||PC2032-32-2==>darkcalm,2032,1,168,4.7428262046561995
PC2032-39-2||PC2032-40-1==>random,2032,1,168,4.7428262046561995
PC2032-40-6||PC2032-41-5==>random,2032,1,168,4.7428262046561995
PC2032-42-1||PC2032-42-7==>random,2032,1,168,4.7428262046561995
PC2032-45-1||PC2032-45-7==>random,2032,1,167,4.7428262046561995
PC2032-49-4||PC2032-50-3==>random,2032,1,168,4.7428262046561995
PC2033-03-4||PC2033-04-3==>random,2033,1,168,4.345238095238095
PC2033-15-4||PC2033-16-3==>random,2033,1,168,4.345238095238095
PC2033-17-5||PC2033-18-4==>random,2033,1,168,4.345238095238095
PC2033-22-4||PC2033-23-3==>random,2033,1,168,4.345238095238095
PC2033-27-4||PC2033-28-3==>hot,2033,1,168,4.345238095238095
PC2033-31-1||PC2033-31-7==>darkcalm,2033,1,168,4.345238095238095
PC2033-32-3||PC2033-33-2==>calm,2033,1,168,4.345238095238095
PC2033-35-5||PC2033-37-4==>random-dark,2033,1,336,4.345238095238095
PC2033-39-7||PC2033-40-6==>random,2033,1,168,4.345238095238095
PC2033-47-1||PC2033-47-7==>random,2033,1,168,4.345238095238095
PC2033-49-3||PC2033-50-2==>random,2033,1,168,4.345238095238095
PC2034-01-3||PC2034-02-2==>random,2034,1,168,4.506172839506172
PC2034-07-2||PC2034-08-1==>random,2034,1,168,4.506172839506172
PC2034-25-4||PC2034-26-3==>random,2034,1,168,4.506172839506172
PC2034-27-3||PC2034-28-2==>random,2034,1,168,4.506172839506172
PC2034-29-4||PC2034-30-3==>hot,2034,1,168,4.506172839506172
PC2034-31-7||PC2034-32-6==>calm,2034,1,168,4.506172839506172
PC2034-35-7||PC2034-36-6==>random,2034,1,168,4.506172839506172
PC2034-37-5||PC2034-38-4==>random,2034,1,168,4.506172839506172
PC2034-45-7||PC2034-46-6==>random,2034,1,168,4.506172839506172
PC2034-50-2||PC2034-52-5==>dark-darkcalm-random,2034,1,432,4.506172839506172
PC2035-06-6||PC2035-07-5==>random,2035,1,168,4.7428262046561995
PC2035-08-1||PC2035-08-7==>random,2035,1,168,4.7428262046561995
PC2035-11-1||PC2035-11-7==>random,2035,1,168,4.7428262046561995
PC2035-12-2||PC2035-13-1==>random,2035,1,168,4.7428262046561995
PC2035-16-1||PC2035-16-7==>random,2035,1,168,4.7428262046561995
PC2035-26-3||PC2035-27-2==>darkcalm,2035,1,168,4.7428262046561995
PC2035-28-1||PC2035-28-7==>random,2035,1,168,4.7428262046561995
PC2035-32-5||PC2035-33-4==>hot,2035,1,168,4.7428262046561995
PC2035-37-6||PC2035-38-5==>random,2035,1,168,4.7428262046561995
PC2035-42-2||PC2035-43-1==>dark,2035,1,168,4.7428262046561995
PC2035-44-4||PC2035-45-3==>random,2035,1,167,4.7428262046561995
PC2036-01-3||PC2036-02-6==>dark-darkcalm,2036,1,264,4.506172839506172
PC2036-06-3||PC2036-07-2==>random,2036,1,168,4.506172839506172
PC2036-07-5||PC2036-08-4==>random,2036,1,168,4.506172839506172
PC2036-09-3||PC2036-10-2==>random,2036,1,168,4.506172839506172
PC2036-13-4||PC2036-14-3==>random,2036,1,168,4.506172839506172
PC2036-16-1||PC2036-16-7==>random,2036,1,168,4.506172839506172
PC2036-29-5||PC2036-30-4==>hot,2036,1,168,4.506172839506172
PC2036-35-1||PC2036-35-7==>calm,2036,1,168,4.506172839506172
PC2036-36-7||PC2036-37-6==>random,2036,1,168,4.506172839506172
PC2036-42-7||PC2036-43-6==>random,2036,1,168,4.506172839506172
PC2036-44-4||PC2036-45-3==>random,2036,1,168,4.506172839506172
PC2037-02-6||PC2037-03-7==>dark-darkcalm,2037,1,216,5.069444444444445
PC2037-07-1||PC2037-07-7==>random,2037,1,168,5.069444444444445
PC2037-16-5||PC2037-17-4==>random,2037,1,168,5.069444444444445
PC2037-18-6||PC2037-19-5==>random,2037,1,168,5.069444444444445
PC2037-21-1||PC2037-21-7==>random,2037,1,168,5.069444444444445
PC2037-23-6||PC2037-24-5==>random,2037,1,168,5.069444444444445
PC2037-27-1||PC2037-27-7==>random,2037,1,168,5.069444444444445
PC2037-29-7||PC2037-30-6==>hot,2037,1,168,5.069444444444445
PC2037-45-5||PC2037-46-4==>random,2037,1,168,5.069444444444445
PC2037-50-3||PC2037-51-2==>random,2037,1,168,5.069444444444445
PC2038-04-1||PC2038-04-7==>random,2038,1,168,4.740259740259741
PC2038-05-2||PC2038-06-1==>random,2038,1,168,4.740259740259741
PC2038-16-1||PC2038-16-7==>random,2038,1,168,4.740259740259741
PC2038-21-3||PC2038-22-2==>random,2038,1,168,4.740259740259741
PC2038-27-4||PC2038-28-3==>hot,2038,1,168,4.740259740259741
PC2038-35-4||PC2038-36-3==>darkcalm,2038,1,168,4.740259740259741
PC2038-43-3||PC2038-44-2==>random,2038,1,168,4.740259740259741
PC2038-45-2||PC2038-46-1==>random,2038,1,168,4.740259740259741
PC2038-46-6||PC2038-47-5==>random,2038,1,168,4.740259740259741
PC2038-50-1||PC2038-50-7==>random,2038,1,168,4.740259740259741
PC2038-51-6||PC2038-52-5==>dark,2038,1,168,4.740259740259741
PC2039-01-4||PC2039-02-3==>random,2039,1,168,4.740259740259741
PC2039-03-1||PC2039-03-7==>dark,2039,1,168,4.740259740259741
PC2039-04-5||PC2039-05-4==>darkcalm,2039,1,168,4.740259740259741
PC2039-11-4||PC2039-12-3==>random,2039,1,168,4.740259740259741
PC2039-13-7||PC2039-14-6==>random,2039,1,168,4.740259740259741
PC2039-19-6||PC2039-20-5==>random,2039,1,168,4.740259740259741
PC2039-28-3||PC2039-29-2==>hot,2039,1,168,4.740259740259741
PC2039-31-4||PC2039-32-3==>random,2039,1,168,4.740259740259741
PC2039-34-6||PC2039-35-5==>random,2039,1,168,4.740259740259741
PC2039-36-5||PC2039-37-4==>random,2039,1,168,4.740259740259741
PC2039-45-3||PC2039-46-2==>random,2039,1,168,4.740259740259741
PC2040-05-2||PC2040-06-1==>dark,2040,1,168,4.62269129287599
PC2040-12-5||PC2040-14-4==>random,2040,1,336,4.62269129287599
PC2040-26-5||PC2040-27-4==>random,2040,1,168,4.62269129287599
PC2040-29-2||PC2040-30-1==>hot,2040,1,168,4.62269129287599
PC2040-32-6||PC2040-33-5==>random,2040,1,168,4.62269129287599
PC2040-36-5||PC2040-37-4==>random,2040,1,168,4.62269129287599
PC2040-40-2||PC2040-41-1==>random,2040,1,168,4.62269129287599
PC2040-45-1||PC2040-45-7==>random,2040,1,167,4.62269129287599
PC2040-49-3||PC2040-50-4==>calm-darkcalm,2040,1,216,4.62269129287599
PC2040-51-6||PC2040-52-5==>random,2040,1,168,4.62269129287599
PC2041-05-3||PC2041-06-2==>dark,2041,1,168,4.740259740259741
PC2041-14-1||PC2041-14-7==>random,2041,1,168,4.740259740259741
PC2041-20-3||PC2041-21-2==>random,2041,1,168,4.740259740259741
PC2041-25-7||PC2041-26-6==>hot,2041,1,168,4.740259740259741
PC2041-29-5||PC2041-30-4==>random,2041,1,168,4.740259740259741
PC2041-30-7||PC2041-31-6==>darkcalm,2041,1,168,4.740259740259741
PC2041-37-1||PC2041-37-7==>random,2041,1,168,4.740259740259741
PC2041-38-6||PC2041-39-5==>random,2041,1,168,4.740259740259741
PC2041-40-5||PC2041-41-4==>random,2041,1,168,4.740259740259741
PC2041-45-6||PC2041-46-5==>random,2041,1,168,4.740259740259741
PC2041-50-3||PC2041-51-2==>random,2041,1,168,4.740259740259741
PC2042-08-7||PC2042-09-6==>random,2042,1,168,4.345238095238095
PC2042-14-2||PC2042-15-1==>random,2042,1,168,4.345238095238095
PC2042-19-3||PC2042-20-2==>random,2042,1,168,4.345238095238095
PC2042-22-5||PC2042-23-4==>random,2042,1,168,4.345238095238095
PC2042-28-1||PC2042-28-7==>hot,2042,1,168,4.345238095238095
PC2042-31-5||PC2042-32-4==>darkcalm,2042,1,168,4.345238095238095
PC2042-32-7||PC2042-33-6==>calm,2042,1,168,4.345238095238095
PC2042-34-6||PC2042-35-5==>random,2042,1,168,4.345238095238095
PC2042-37-2||PC2042-38-1==>dark,2042,1,168,4.345238095238095
PC2042-42-1||PC2042-42-7==>random,2042,1,168,4.345238095238095
PC2042-46-2||PC2042-47-1==>random,2042,1,168,4.345238095238095
PC2042-51-1||PC2042-51-7==>random,2042,1,168,4.345238095238095
PC2043-04-5||PC2043-05-4==>random,2043,1,168,4.506172839506172
PC2043-06-3||PC2043-07-2==>random,2043,1,168,4.506172839506172
PC2043-10-2||PC2043-11-1==>random,2043,1,168,4.506172839506172
PC2043-18-1||PC2043-18-7==>random,2043,1,168,4.506172839506172
PC2043-28-2||PC2043-29-1==>random,2043,1,168,4.506172839506172
PC2043-30-1||PC2043-30-7==>hot,2043,1,168,4.506172839506172
PC2043-32-4||PC2043-33-3==>calm,2043,1,168,4.506172839506172
PC2043-35-6||PC2043-36-5==>random,2043,1,168,4.506172839506172
PC2043-37-7||PC2043-38-6==>random,2043,1,168,4.506172839506172
PC2043-41-7||PC2043-42-6==>random,2043,1,168,4.506172839506172
PC2043-50-6||PC2043-52-2==>dark-darkcalm,2043,1,264,4.506172839506172
PC2044-01-1||PC2044-01-7==>random,2044,1,168,4.740259740259741
PC2044-03-7||PC2044-04-6==>random,2044,1,168,4.740259740259741
PC2044-20-3||PC2044-21-2==>random,2044,1,168,4.740259740259741
PC2044-21-4||PC2044-22-3==>random,2044,1,168,4.740259740259741
PC2044-25-7||PC2044-26-6==>darkcalm,2044,1,168,4.740259740259741
PC2044-28-4||PC2044-29-3==>random,2044,1,168,4.740259740259741
PC2044-29-5||PC2044-30-4==>random,2044,1,168,4.740259740259741
PC2044-32-2||PC2044-33-1==>hot,2044,1,168,4.740259740259741
PC2044-39-6||PC2044-40-5==>random,2044,1,168,4.740259740259741
PC2044-41-6||PC2044-42-5==>dark,2044,1,168,4.740259740259741
PC2044-48-6||PC2044-49-5==>random,2044,1,168,4.740259740259741
PC2045-01-1||PC2045-02-3==>dark-darkcalm,2045,1,240,4.564877540385617
PC2045-27-2||PC2045-28-1==>random,2045,1,168,4.564877540385617
PC2045-29-2||PC2045-30-1==>hot,2045,1,168,4.564877540385617
PC2045-31-4||PC2045-32-3==>random,2045,1,168,4.564877540385617
PC2045-34-5||PC2045-35-4==>calm,2045,1,168,4.564877540385617
PC2045-41-2||PC2045-42-1==>random,2045,1,168,4.564877540385617
PC2045-44-6||PC2045-45-5==>random,2045,1,167,4.564877540385617
PC2045-46-7||PC2045-47-6==>random,2045,1,168,4.564877540385617
PC2045-48-3||PC2045-49-2==>random,2045,1,168,4.564877540385617
PC2045-50-4||PC2045-51-3==>random,2045,1,168,4.564877540385617
PC2045-51-6||PC2045-52-5==>random,2045,1,168,4.564877540385617
PC2046-02-3||PC2046-03-4==>dark-darkcalm,2046,1,216,5.069444444444445
PC2046-09-5||PC2046-10-4==>random,2046,1,168,5.069444444444445
PC2046-17-3||PC2046-18-2==>random,2046,1,168,5.069444444444445
PC2046-29-4||PC2046-30-3==>hot,2046,1,168,5.069444444444445
PC2046-32-7||PC2046-33-6==>random,2046,1,168,5.069444444444445
PC2046-35-7||PC2046-36-6==>random,2046,1,168,5.069444444444445
PC2046-38-4||PC2046-39-3==>random,2046,1,168,5.069444444444445
PC2046-39-7||PC2046-40-6==>random,2046,1,168,5.069444444444445
PC2046-43-2||PC2046-44-1==>random,2046,1,168,5.069444444444445
PC2046-51-4||PC2046-52-3==>random,2046,1,168,5.069444444444445
PC2047-04-5||PC2047-05-4==>random,2047,1,168,4.740259740259741
PC2047-07-3||PC2047-08-2==>random,2047,1,168,4.740259740259741
PC2047-09-4||PC2047-10-3==>random,2047,1,168,4.740259740259741
PC2047-12-1||PC2047-12-7==>random,2047,1,168,4.740259740259741
PC2047-23-7||PC2047-24-6==>random,2047,1,168,4.740259740259741
PC2047-28-1||PC2047-28-7==>hot,2047,1,168,4.740259740259741
PC2047-33-2||PC2047-34-1==>random,2047,1,168,4.740259740259741
PC2047-36-1||PC2047-36-7==>darkcalm,2047,1,168,4.740259740259741
PC2047-42-6||PC2047-43-5==>random,2047,1,168,4.740259740259741
PC2047-47-5||PC2047-48-4==>random,2047,1,168,4.740259740259741
PC2047-51-7||PC2047-52-6==>dark,2047,1,168,4.740259740259741
PC2048-03-5||PC2048-04-4==>dark,2048,1,168,4.740259740259741
PC2048-05-2||PC2048-06-1==>darkcalm,2048,1,168,4.740259740259741
PC2048-12-1||PC2048-12-7==>random,2048,1,168,4.740259740259741
PC2048-17-4||PC2048-18-3==>random,2048,1,168,4.740259740259741
PC2048-25-4||PC2048-26-3==>random,2048,1,168,4.740259740259741
PC2048-28-7||PC2048-30-6==>hot-random,2048,1,336,4.740259740259741
PC2048-34-6||PC2048-35-5==>random,2048,1,168,4.740259740259741
PC2048-38-2||PC2048-39-1==>random,2048,1,168,4.740259740259741
PC2048-42-3||PC2048-43-2==>random,2048,1,168,4.740259740259741
PC2048-43-6||PC2048-44-5==>random,2048,1,168,4.740259740259741
PC2049-04-6||PC2049-05-5==>dark,2049,1,168,4.62269129287599
PC2049-07-6||PC2049-08-5==>random,2049,1,168,4.62269129287599
PC2049-10-2||PC2049-11-1==>random,2049,1,168,4.62269129287599
PC2049-13-1||PC2049-13-7==>random,2049,1,168,4.62269129287599
PC2049-17-4||PC2049-18-3==>random,2049,1,168,4.62269129287599
PC2049-20-2||PC2049-21-1==>random,2049,1,168,4.62269129287599
PC2049-28-6||PC2049-29-5==>hot,2049,1,168,4.62269129287599
PC2049-39-2||PC2049-40-1==>random,2049,1,168,4.62269129287599
PC2049-43-6||PC2049-44-5==>random,2049,1,167,4.62269129287599
PC2049-47-4||PC2049-48-3==>random,2049,1,168,4.62269129287599
PC2049-48-7||PC2049-50-1==>calm-darkcalm,2049,1,216,4.62269129287599
