load_zone,fuel,period,fuel_cost
PSCO,Coal,2021,1.34
PSCO,Coal,2022,1.34
PSCO,Coal,2023,1.34
PSCO,Coal,2024,1.34
PSCO,Coal,2025,1.34
PSCO,Coal,2026,1.34
PSCO,Coal,2027,1.34
PSCO,Coal,2028,1.34
PSCO,Coal,2029,1.34
PSCO,Coal,2030,1.34
PSCO,Coal,2031,1.34
PSCO,Coal,2032,1.34
PSCO,Coal,2033,1.34
PSCO,Coal,2034,1.34
PSCO,Coal,2035,1.34
PSCO,Coal,2036,1.34
PSCO,Coal,2037,1.34
PSCO,Coal,2038,1.34
PSCO,Coal,2039,1.34
PSCO,Coal,2040,1.34
PSCO,Coal,2041,1.34
PSCO,Coal,2042,1.34
PSCO,Coal,2043,1.34
PSCO,Coal,2044,1.34
PSCO,Coal,2045,1.34
PSCO,Coal,2046,1.34
PSCO,Coal,2047,1.34
PSCO,Coal,2048,1.34
PSCO,Coal,2049,1.34
PSCO,NaturalGas,2021,3.861331808671111
PSCO,NaturalGas,2022,3.5296263831443726
PSCO,NaturalGas,2023,3.739776957617634
PSCO,NaturalGas,2024,3.8102696920908956
PSCO,NaturalGas,2025,3.9060593625641573
PSCO,NaturalGas,2026,3.9622926156614184
PSCO,NaturalGas,2027,4.025543245719961
PSCO,NaturalGas,2028,4.095345493713708
PSCO,NaturalGas,2029,4.222298748751278
PSCO,NaturalGas,2030,4.344550235900784
PSCO,NaturalGas,2031,4.438611471373118
PSCO,NaturalGas,2032,4.487470812143735
PSCO,NaturalGas,2033,4.582578921491882
PSCO,NaturalGas,2034,4.658780162186124
PSCO,NaturalGas,2035,4.73972423075862
PSCO,NaturalGas,2036,4.817669112013001
PSCO,NaturalGas,2037,4.834813175996953
PSCO,NaturalGas,2038,4.908221434220432
PSCO,NaturalGas,2039,4.999759377749312
PSCO,NaturalGas,2040,5.087832993772165
PSCO,NaturalGas,2041,5.139178439453856
PSCO,NaturalGas,2042,5.240965073564766
PSCO,NaturalGas,2043,5.338828843233642
PSCO,NaturalGas,2044,5.439184019035834
PSCO,NaturalGas,2045,5.541328481874216
PSCO,NaturalGas,2046,5.616494061480248
PSCO,NaturalGas,2047,5.659143976197255
PSCO,NaturalGas,2048,5.729111532301891
PSCO,NaturalGas,2049,5.75656485336207
