PERIOD,Component,Component_type,AnnualCost_NPV,AnnualCost_Real
2021,TotalGenFixedCosts,annual,354099895107.3989,366493391436.1587
2021,StorageEnergyFixedCost,annual,0.0,0.0
2022,TotalGenFixedCosts,annual,342128652669.35736,366496765955.73315
2022,StorageEnergyFixedCost,annual,0.0,0.0
2023,TotalGenFixedCosts,annual,330559084704.6931,366496765955.73315
2023,StorageEnergyFixedCost,annual,0.0,0.0
2024,TotalGenFixedCosts,annual,319380758168.78564,366496765955.73315
2024,StorageEnergyFixedCost,annual,0.0,0.0
2025,TotalGenFixedCosts,annual,308587246526.82855,366504846797.19116
2025,StorageEnergyFixedCost,annual,0.0,0.0
2026,TotalGenFixedCosts,annual,298151929011.4286,366504846797.19116
2026,StorageEnergyFixedCost,annual,0.0,0.0
2027,TotalGenFixedCosts,annual,288069496629.3996,366504846797.19116
2027,StorageEnergyFixedCost,annual,0.0,0.0
2028,TotalGenFixedCosts,annual,278328016067.0528,366504846797.19116
2028,StorageEnergyFixedCost,annual,0.0,0.0
2029,TotalGenFixedCosts,annual,268915957552.70804,366504846797.19116
2029,StorageEnergyFixedCost,annual,0.0,0.0
2030,TotalGenFixedCosts,annual,259836785501.50742,366525447592.2033
2030,StorageEnergyFixedCost,annual,0.0,0.0
2031,TotalGenFixedCosts,annual,251062743748.00552,366544002999.9931
2031,StorageEnergyFixedCost,annual,0.0,0.0
2032,TotalGenFixedCosts,annual,242572699273.4353,366544002999.9931
2032,StorageEnergyFixedCost,annual,0.0,0.0
2033,TotalGenFixedCosts,annual,234369757752.11145,366544002999.9931
2033,StorageEnergyFixedCost,annual,0.0,0.0
2034,TotalGenFixedCosts,annual,226484606923.40942,366609392649.75586
2034,StorageEnergyFixedCost,annual,0.0,0.0
2035,TotalGenFixedCosts,annual,218886403725.26874,366711080548.67487
2035,StorageEnergyFixedCost,annual,0.0,0.0
2036,TotalGenFixedCosts,annual,211484448043.7379,366711080548.67487
2036,StorageEnergyFixedCost,annual,0.0,0.0
2037,TotalGenFixedCosts,annual,204332800042.25885,366711080548.67487
2037,StorageEnergyFixedCost,annual,0.0,0.0
2038,TotalGenFixedCosts,annual,197422995209.912,366711080548.67487
2038,StorageEnergyFixedCost,annual,0.0,0.0
2039,TotalGenFixedCosts,annual,190746855275.27728,366711080548.67487
2039,StorageEnergyFixedCost,annual,0.0,0.0
2040,TotalGenFixedCosts,annual,184296478526.83792,366711080548.67487
2040,StorageEnergyFixedCost,annual,0.0,0.0
2041,TotalGenFixedCosts,annual,178064230460.713,366711080548.67487
2041,StorageEnergyFixedCost,annual,0.0,0.0
2042,TotalGenFixedCosts,annual,172042734744.65027,366711080548.67487
2042,StorageEnergyFixedCost,annual,0.0,0.0
2043,TotalGenFixedCosts,annual,166224864487.5848,366711080548.67487
2043,StorageEnergyFixedCost,annual,0.0,0.0
2044,TotalGenFixedCosts,annual,160603733804.42978,366711080548.67487
2044,StorageEnergyFixedCost,annual,0.0,0.0
2045,TotalGenFixedCosts,annual,155172689666.11575,366711080548.67487
2045,StorageEnergyFixedCost,annual,0.0,0.0
2046,TotalGenFixedCosts,annual,149925304025.23264,366711080548.67487
2046,StorageEnergyFixedCost,annual,0.0,0.0
2047,TotalGenFixedCosts,annual,144855366207.95422,366711080548.67487
2047,StorageEnergyFixedCost,annual,0.0,0.0
2048,TotalGenFixedCosts,annual,139956875563.2408,366711080548.67487
2048,StorageEnergyFixedCost,annual,0.0,0.0
2049,TotalGenFixedCosts,annual,135218398484.76787,366695796741.0808
2049,StorageEnergyFixedCost,annual,0.0,0.0
2021,GenVariableOMCostsInTP,timepoint,39132841.7913408,40502491.25403781
2021,FuelCostsPerTP,timepoint,353906357.4629073,366293079.9741099
2022,GenVariableOMCostsInTP,timepoint,34216843.75135353,36653938.44754376
2022,FuelCostsPerTP,timepoint,289555214.58298516,310178784.7416589
2023,GenVariableOMCostsInTP,timepoint,30358675.08252094,33659205.725308135
2023,FuelCostsPerTP,timepoint,253564277.58753103,281131247.0227581
2024,GenVariableOMCostsInTP,timepoint,31860212.835283697,36560327.03329596
2024,FuelCostsPerTP,timepoint,266406011.3327383,305707025.50908226
2025,GenVariableOMCostsInTP,timepoint,32475440.722688247,38570636.21618376
2025,FuelCostsPerTP,timepoint,290043043.3892741,344480150.68158394
2026,GenVariableOMCostsInTP,timepoint,33800750.37474781,41549752.43260021
2026,FuelCostsPerTP,timepoint,300535837.93739605,369435279.5419569
2027,GenVariableOMCostsInTP,timepoint,27452080.076658294,34926712.201339826
2027,FuelCostsPerTP,timepoint,235664161.64062342,299830625.8326356
2028,GenVariableOMCostsInTP,timepoint,29654602.95254015,39049449.15546657
2028,FuelCostsPerTP,timepoint,268022777.90337393,352934816.05519867
2029,GenVariableOMCostsInTP,timepoint,26784790.080421597,36504919.50815429
2029,FuelCostsPerTP,timepoint,229118519.06015775,312265023.20928115
2030,GenVariableOMCostsInTP,timepoint,27404040.526813146,38656105.603133686
2030,FuelCostsPerTP,timepoint,251997556.90519223,355467441.4500154
2031,GenVariableOMCostsInTP,timepoint,28691523.231008854,41888755.05884305
2031,FuelCostsPerTP,timepoint,271187708.58533245,395925842.2230679
2032,GenVariableOMCostsInTP,timepoint,22881664.232670687,34575765.64991201
2032,FuelCostsPerTP,timepoint,202371324.7682287,305796966.00293225
2033,GenVariableOMCostsInTP,timepoint,24877519.46687091,38907347.33677459
2033,FuelCostsPerTP,timepoint,230552020.30763832,360573229.3868709
2034,GenVariableOMCostsInTP,timepoint,26139245.32445193,42311453.22808164
2034,FuelCostsPerTP,timepoint,241273655.7862707,390548345.0365494
2035,GenVariableOMCostsInTP,timepoint,22529171.630444452,37744221.34887991
2035,FuelCostsPerTP,timepoint,192857729.4083436,323103971.4657855
2036,GenVariableOMCostsInTP,timepoint,17856992.985015366,30963776.549331896
2036,FuelCostsPerTP,timepoint,142698024.08531716,247436381.67504942
2037,GenVariableOMCostsInTP,timepoint,18664944.254104063,33497519.11777118
2037,FuelCostsPerTP,timepoint,150041672.50121725,269276121.30246574
2038,GenVariableOMCostsInTP,timepoint,18495116.273170438,34354478.64721278
2038,FuelCostsPerTP,timepoint,147756407.36432874,274455930.24739385
2039,GenVariableOMCostsInTP,timepoint,22410959.61718497,43085099.38730192
2039,FuelCostsPerTP,timepoint,207395112.58587983,398717377.16002834
2040,GenVariableOMCostsInTP,timepoint,20939938.521510907,41666056.47176191
2040,FuelCostsPerTP,timepoint,190815164.63261518,379681889.56637996
2041,GenVariableOMCostsInTP,timepoint,18606781.76899917,38319391.99910519
2041,FuelCostsPerTP,timepoint,161317079.53183445,332221470.83115333
2042,GenVariableOMCostsInTP,timepoint,18779047.448488012,40027757.00892544
2042,FuelCostsPerTP,timepoint,167429271.7293944,356877430.72959447
2043,GenVariableOMCostsInTP,timepoint,19573538.09714838,43181465.82879026
2043,FuelCostsPerTP,timepoint,186624411.48889068,411714816.58186674
2044,GenVariableOMCostsInTP,timepoint,19887720.189449638,45410198.05432205
2044,FuelCostsPerTP,timepoint,192895155.9459836,440443004.61715496
2045,GenVariableOMCostsInTP,timepoint,18709831.36729436,44215915.13524064
2045,FuelCostsPerTP,timepoint,176052883.41480938,416056093.6957992
2046,GenVariableOMCostsInTP,timepoint,15726940.563131198,38467444.872814745
2046,FuelCostsPerTP,timepoint,146864755.08392048,359225104.671302
2047,GenVariableOMCostsInTP,timepoint,14683941.72488855,37173383.890502825
2047,FuelCostsPerTP,timepoint,128877353.07256182,326261668.039586
2048,GenVariableOMCostsInTP,timepoint,17356373.976640258,45476684.36985553
2048,FuelCostsPerTP,timepoint,173147010.64310747,453674941.7360069
2049,GenVariableOMCostsInTP,timepoint,14700044.61794225,39864727.23911898
2049,FuelCostsPerTP,timepoint,141944963.61939788,384937420.58084095
