gen_tech,gen_load_zone,gen_energy_source,period,Energy_GWh_typical_yr,VariableCost_per_yr,DispatchEmissions_tCO2_per_typical_yr
coal,PSCO,Coal,2021,15656.271461382796,31312542.922764786,16669232.22493392
coal,PSCO,Coal,2022,14585.545358338266,29171090.716677275,15529230.143022714
coal,PSCO,Coal,2023,13805.691720016413,27611383.44003229,14698919.974301258
coal,PSCO,Coal,2024,15067.75202916008,30135504.0583195,16042635.585446797
coal,PSCO,Coal,2025,14888.05287303468,29776105.746069342,15851309.89392001
coal,PSCO,Coal,2026,16263.222919116673,32526445.838232417,17315453.441983152
coal,PSCO,Coal,2027,14194.450142273181,28388900.284545757,15112831.066477772
coal,PSCO,Coal,2028,15206.752739888952,30413505.47977821,16190629.642159998
coal,PSCO,Coal,2029,15084.475799287819,30168951.59857492,16060441.383501427
coal,PSCO,Coal,2030,15228.060204512552,30456120.409024402,16213315.699744185
coal,PSCO,Coal,2031,16217.176540161257,32434353.080323614,17266427.86230972
coal,PSCO,Coal,2032,14188.029517521934,28376059.035043072,15105995.027305217
coal,PSCO,Coal,2033,15416.805031335149,30833610.062669586,16414272.316862598
coal,PSCO,Coal,2034,16800.744137176473,33601488.274353065,17887752.28285183
coal,PSCO,Coal,2035,15884.050849508025,31768101.69901489,16911748.939470652
coal,PSCO,Coal,2036,13754.788816360846,27509577.63272176,14644723.6527794
coal,PSCO,Coal,2037,14852.732035614963,29705464.071230184,15813703.798319437
coal,PSCO,Coal,2038,15383.063775225502,30766127.550450187,16378348.00148224
coal,PSCO,Coal,2039,17271.077916487462,34542155.83297386,18388516.657683723
coal,PSCO,Coal,2040,17014.203893249207,34028407.786497444,18115022.885141782
coal,PSCO,Coal,2041,16273.27984843304,32546559.69686502,17326161.054626253
coal,PSCO,Coal,2042,16664.079520236264,33328159.040471584,17742245.4651955
coal,PSCO,Coal,2043,17185.568546626848,34371137.09325397,18297474.831593715
coal,PSCO,Coal,2044,18075.910842056517,36151821.68411189,19245422.27353699
coal,PSCO,Coal,2045,17938.21573583007,35876431.47165973,19098818.293938074
coal,PSCO,Coal,2046,15785.952893175488,31571905.786351204,16807304.045364145
coal,PSCO,Coal,2047,15955.777649180225,31911555.298359547,16988116.46308181
coal,PSCO,Coal,2048,18108.033850543343,36216067.70108558,19279623.640672944
coal,PSCO,Coal,2049,16313.587712801527,32627175.42560225,17369076.837819215
gas,PSCO,NaturalGas,2021,4766.042728383804,9189948.331272686,2346380.491237381
gas,PSCO,NaturalGas,2022,3872.8711945603013,7482847.730866875,1872089.7828638186
gas,PSCO,NaturalGas,2023,3108.750658034526,6047822.285275522,1475798.3817783282
gas,PSCO,NaturalGas,2024,3308.6618250806473,6424822.974976201,1563504.5090347184
gas,PSCO,NaturalGas,2025,4531.356252368803,8794530.470114859,2147700.9399226173
gas,PSCO,NaturalGas,2026,4656.01899619916,9023306.594367247,2210581.207945898
gas,PSCO,NaturalGas,2027,3365.058677533464,6537811.91679376,1567680.286728853
gas,PSCO,NaturalGas,2028,4457.00302493544,8635943.675688736,2107851.7117358875
gas,PSCO,NaturalGas,2029,3260.1164861969382,6335967.909579026,1499393.8532573474
gas,PSCO,NaturalGas,2030,4242.599080711508,8199985.194108841,2017406.6152738333
gas,PSCO,NaturalGas,2031,4892.029765477824,9454401.978520159,2333798.934306678
gas,PSCO,NaturalGas,2032,3185.4640491127416,6199706.614868546,1485898.482874648
gas,PSCO,NaturalGas,2033,4159.123363614003,8073737.2741047265,1945335.860869593
gas,PSCO,NaturalGas,2034,4480.06843283963,8709964.953729143,2054985.7157038613
gas,PSCO,NaturalGas,2035,3069.2059797460333,5976119.649864588,1335392.6047771024
gas,PSCO,NaturalGas,2036,1771.3840598001777,3454198.9166103746,741430.5326971111
gas,PSCO,NaturalGas,2037,1946.2502068017625,3792055.0465411567,823263.5027111685
gas,PSCO,NaturalGas,2038,1840.1800496217386,3588351.096762366,786595.269295673
gas,PSCO,NaturalGas,2039,4386.7612087756415,8542943.554327238,1935822.7309757334
gas,PSCO,NaturalGas,2040,3927.84323054488,7637648.685264065,1722045.885304489
gas,PSCO,NaturalGas,2041,2960.481291268659,5772832.302239698,1275552.627219015
gas,PSCO,NaturalGas,2042,3438.347319851667,6699597.968453452,1468565.8726114267
gas,PSCO,NaturalGas,2043,4527.10548614861,8810328.73553664,1969354.5620572818
gas,PSCO,NaturalGas,2044,4754.323805314158,9258376.37020922,2113414.568966203
gas,PSCO,NaturalGas,2045,4276.672719644125,8339483.66358132,1834724.0834955522
gas,PSCO,NaturalGas,2046,3537.86099160576,6895539.086463838,1520375.7867072287
gas,PSCO,NaturalGas,2047,2698.3087113206734,5261828.5921426695,1141196.566605347
gas,PSCO,NaturalGas,2048,4760.696778018982,9260616.668769168,2138234.3438847135
gas,PSCO,NaturalGas,2049,3718.931672844836,7237551.813516415,1673432.0379735355
geo,PSCO,Geothermal,2021,0.0,0.0,0.0
geo,PSCO,Geothermal,2022,0.0,0.0,0.0
geo,PSCO,Geothermal,2023,0.0,0.0,0.0
geo,PSCO,Geothermal,2024,0.0,0.0,0.0
geo,PSCO,Geothermal,2025,0.0,0.0,0.0
geo,PSCO,Geothermal,2026,0.0,0.0,0.0
geo,PSCO,Geothermal,2027,0.0,0.0,0.0
geo,PSCO,Geothermal,2028,0.0,0.0,0.0
geo,PSCO,Geothermal,2029,0.0,0.0,0.0
geo,PSCO,Geothermal,2030,0.0,0.0,0.0
geo,PSCO,Geothermal,2031,0.0,0.0,0.0
geo,PSCO,Geothermal,2032,0.0,0.0,0.0
geo,PSCO,Geothermal,2033,0.0,0.0,0.0
geo,PSCO,Geothermal,2034,0.0,0.0,0.0
geo,PSCO,Geothermal,2035,0.0,0.0,0.0
geo,PSCO,Geothermal,2036,0.0,0.0,0.0
geo,PSCO,Geothermal,2037,0.0,0.0,0.0
geo,PSCO,Geothermal,2038,0.0,0.0,0.0
geo,PSCO,Geothermal,2039,0.0,0.0,0.0
geo,PSCO,Geothermal,2040,0.0,0.0,0.0
geo,PSCO,Geothermal,2041,0.0,0.0,0.0
geo,PSCO,Geothermal,2042,0.0,0.0,0.0
geo,PSCO,Geothermal,2043,0.0,0.0,0.0
geo,PSCO,Geothermal,2044,0.0,0.0,0.0
geo,PSCO,Geothermal,2045,0.0,0.0,0.0
geo,PSCO,Geothermal,2046,0.0,0.0,0.0
geo,PSCO,Geothermal,2047,0.0,0.0,0.0
geo,PSCO,Geothermal,2048,0.0,0.0,0.0
geo,PSCO,Geothermal,2049,0.0,0.0,0.0
solar,PSCO,Solar,2021,2358.9012044805204,0.0,0.0
solar,PSCO,Solar,2022,2349.6506466824935,0.0,0.0
solar,PSCO,Solar,2023,2429.378918556899,0.0,0.0
solar,PSCO,Solar,2024,2192.228550925756,0.0,0.0
solar,PSCO,Solar,2025,2247.072293903915,0.0,0.0
solar,PSCO,Solar,2026,2118.2825695729057,0.0,0.0
solar,PSCO,Solar,2027,2264.4911456558225,0.0,0.0
solar,PSCO,Solar,2028,2292.7871642319333,0.0,0.0
solar,PSCO,Solar,2029,2325.487299708116,0.0,0.0
solar,PSCO,Solar,2030,3181.485357922672,0.0,0.0
solar,PSCO,Solar,2031,3859.002457396002,0.0,0.0
solar,PSCO,Solar,2032,3948.3857619825158,0.0,0.0
solar,PSCO,Solar,2033,3732.559716373108,0.0,0.0
solar,PSCO,Solar,2034,5344.374425040773,0.0,0.0
solar,PSCO,Solar,2035,6828.560037083055,0.0,0.0
solar,PSCO,Solar,2036,7202.490324085826,0.0,0.0
solar,PSCO,Solar,2037,7678.548465727624,0.0,0.0
solar,PSCO,Solar,2038,7055.066799873732,0.0,0.0
solar,PSCO,Solar,2039,7565.133343466625,0.0,0.0
solar,PSCO,Solar,2040,7138.05497147481,0.0,0.0
solar,PSCO,Solar,2041,7544.737563162106,0.0,0.0
solar,PSCO,Solar,2042,7147.36685325229,0.0,0.0
solar,PSCO,Solar,2043,7166.344401720096,0.0,0.0
solar,PSCO,Solar,2044,6650.184395634122,0.0,0.0
solar,PSCO,Solar,2045,6987.890974843284,0.0,0.0
solar,PSCO,Solar,2046,7213.230880932338,0.0,0.0
solar,PSCO,Solar,2047,6951.11899201483,0.0,0.0
solar,PSCO,Solar,2048,7338.78337130399,0.0,0.0
solar,PSCO,Solar,2049,7417.569668022771,0.0,0.0
storage,PSCO,Electricity,2021,0.0,0.0,0.0
storage,PSCO,Electricity,2022,0.0,0.0,0.0
storage,PSCO,Electricity,2023,0.0,0.0,0.0
storage,PSCO,Electricity,2024,0.0,0.0,0.0
storage,PSCO,Electricity,2025,0.0,0.0,0.0
storage,PSCO,Electricity,2026,0.0,0.0,0.0
storage,PSCO,Electricity,2027,0.0,0.0,0.0
storage,PSCO,Electricity,2028,0.0,0.0,0.0
storage,PSCO,Electricity,2029,0.0,0.0,0.0
storage,PSCO,Electricity,2030,-8.999692675874599e-32,0.0,0.0
storage,PSCO,Electricity,2031,5.000189804165446e-16,0.0,0.0
storage,PSCO,Electricity,2032,0.0,0.0,0.0
storage,PSCO,Electricity,2033,0.0,0.0,0.0
storage,PSCO,Electricity,2034,552.5959945417148,0.0,0.0
storage,PSCO,Electricity,2035,1314.950251203786,0.0,0.0
storage,PSCO,Electricity,2036,1034.4970144435954,0.0,0.0
storage,PSCO,Electricity,2037,1322.5554551861826,0.0,0.0
storage,PSCO,Electricity,2038,1322.0937817245383,0.0,0.0
storage,PSCO,Electricity,2039,1560.2404840491124,0.0,0.0
storage,PSCO,Electricity,2040,1378.7043759902544,0.0,0.0
storage,PSCO,Electricity,2041,1366.0238529815424,0.0,0.0
storage,PSCO,Electricity,2042,1519.6694086738873,0.0,0.0
storage,PSCO,Electricity,2043,1599.1130423100171,0.0,0.0
storage,PSCO,Electricity,2044,1526.656143076798,0.0,0.0
storage,PSCO,Electricity,2045,1397.9795366914639,0.0,0.0
storage,PSCO,Electricity,2046,1486.7069449369958,0.0,0.0
storage,PSCO,Electricity,2047,1373.494832893094,0.0,0.0
storage,PSCO,Electricity,2048,1581.4267618613983,0.0,0.0
storage,PSCO,Electricity,2049,1048.0468157198707,0.0,0.0
wind,PSCO,Wind,2021,13749.165848533517,0.0,0.0
wind,PSCO,Wind,2022,15528.209956017476,0.0,0.0
wind,PSCO,Wind,2023,15568.0798949573,0.0,0.0
wind,PSCO,Wind,2024,14273.613344483836,0.0,0.0
wind,PSCO,Wind,2025,14653.14054569908,0.0,0.0
wind,PSCO,Wind,2026,13774.02526609859,0.0,0.0
wind,PSCO,Wind,2027,15053.936868178418,0.0,0.0
wind,PSCO,Wind,2028,14561.499609260585,0.0,0.0
wind,PSCO,Wind,2029,14900.062965881178,0.0,0.0
wind,PSCO,Wind,2030,14979.767208247771,0.0,0.0
wind,PSCO,Wind,2031,14630.948945067581,0.0,0.0
wind,PSCO,Wind,2032,14673.391304185869,0.0,0.0
wind,PSCO,Wind,2033,15016.901699268126,0.0,0.0
wind,PSCO,Wind,2034,14234.699761953138,0.0,0.0
wind,PSCO,Wind,2035,14342.839309356086,0.0,0.0
wind,PSCO,Wind,2036,15484.083231083148,0.0,0.0
wind,PSCO,Wind,2037,14832.300331429515,0.0,0.0
wind,PSCO,Wind,2038,15309.797283565664,0.0,0.0
wind,PSCO,Wind,2039,14598.280516641038,0.0,0.0
wind,PSCO,Wind,2040,15469.92642900939,0.0,0.0
wind,PSCO,Wind,2041,15059.993847632328,0.0,0.0
wind,PSCO,Wind,2042,15102.222527776163,0.0,0.0
wind,PSCO,Wind,2043,14026.00677674213,0.0,0.0
wind,PSCO,Wind,2044,14781.170559771286,0.0,0.0
wind,PSCO,Wind,2045,14283.865061494955,0.0,0.0
wind,PSCO,Wind,2046,15002.932539965876,0.0,0.0
wind,PSCO,Wind,2047,16688.232273958012,0.0,0.0
wind,PSCO,Wind,2048,15813.156372354215,0.0,0.0
wind,PSCO,Wind,2049,16199.64115041239,0.0,0.0
