PERIOD,SystemCostPerPeriod_NPV,SystemCostPerPeriod_Real,EnergyCostReal_per_MWh,SystemDemand_MWh
2021,354492934306.6537,366900187007.3874,10043.699915666726,36530381.242780454
2022,342452424727.694,366843598678.92474,10095.794819816872,36336277.15559882
2023,330843007657.363,366811556408.481,10506.776883783838,34911901.191565044
2024,319679024392.9525,366839033308.2742,10528.567264533618,34842255.74965009
2025,308909765010.9408,366887897584.0893,10101.644172882192,36319621.96500623
2026,298486265599.74036,366915831829.1653,9967.410617351878,36811549.75098706
2027,288332612871.11676,366839604135.225,10517.812618474563,34877936.83364071
2028,278625693447.9088,366896831062.402,10047.001579491347,36518042.53831688
2029,269171860861.8488,366853616739.9088,10313.526751070978,35570142.55107391
2030,260116187098.9397,366919571139.25684,9750.224027633663,37631911.85139431
2031,251362622979.8234,366981817597.2772,9267.414733980166,39599157.70810292
2032,242797952262.43576,366884375731.6453,10192.571670715515,35995270.63280293
2033,234625187291.88474,366943483576.71484,9574.422736212327,38325389.81059018
2034,226752019824.52264,367042252448.02454,9004.438507811696,40762369.81679661
2035,219101790626.3097,367071928741.49316,9201.502843227612,39892606.1313627
2036,211645003060.8093,366989480706.90106,9649.951754311729,38030188.13466349
2037,204501506659.011,367013854189.08936,9392.203192423314,39076438.9004232
2038,197589246733.5431,367019890957.5576,9325.92508889642,39354797.24092324
2039,190976661347.47803,367152883025.2177,8431.396400183607,43545916.42936186
2040,184508233629.991,367132428494.71094,8477.491779031487,43306727.75204437
2041,178244154322.00934,367081621411.49585,8824.622715113537,41597429.51761683
2042,172228943063.8388,367107985736.43604,8723.2532044054,42083839.266644225
2043,166431062437.17447,367165976831.09344,8614.303349569174,42622828.792006314
2044,160816516680.56323,367196933751.34186,8346.868381964367,43992179.695173904
2045,155367452380.89948,367171352557.5097,8491.485735203396,43239942.220631294
2046,150087895720.87634,367108773098.2108,8893.65223812073,41277617.25657294
2047,144998927502.7466,367074515600.59216,8729.257928324294,42051056.18537467
2048,140147378947.85507,367210232174.7663,8027.928009126623,45741595.0613035
2049,135375043493.00601,367120598888.90295,8446.392514096595,43464780.76601313
