GENERATION_PROJECT,build_year,gen_overnight_cost,gen_fixed_om,gen_storage_energy_to_power_ratio,gen_storage_energy_overnight_cost
Solar,2021,1.0e6,15246.183159086235,.,.
Solar,2022,880000.0,14640.519394648356,.,.
Solar,2023,774400.0,14034.85563021048,.,.
Solar,2024,681472.0,13429.191865772606,.,.
Solar,2025,599695.36,12823.528101334727,.,.
Solar,2026,527731.9168,12217.864336896848,.,.
Solar,2027,464404.08678400004,11612.200572458976,.,.
Solar,2028,408675.59636992,11006.5368080211,.,.
Solar,2029,359634.5248055296,10400.87304358322,.,.
Solar,2030,316478.3818288661,9795.209279145349,.,.
Solar,2031,278500.97600940213,9708.197873620915,.,.
Solar,2032,245080.85888827388,9621.186468096483,.,.
Solar,2033,215671.155821681,9534.175062572047,.,.
Solar,2034,189790.61712307928,9447.163657047618,.,.
Solar,2035,167015.74306830976,9360.152251523185,.,.
Wind,2021,1.5e6,42141.538461538454,.,.
Wind,2022,1.4175e6,41786.92307692306,.,.
Wind,2023,1.3395375e6,41432.30769230768,.,.
Wind,2024,1.2658629375e6,41077.6923076923,.,.
Wind,2025,1.1962404759375e6,40723.07692307693,.,.
Wind,2026,1.1304472497609372e6,40368.46153846154,.,.
Wind,2027,1.0682726510240857e6,40013.846153846156,.,.
Wind,2028,1.0095176552177608e6,39659.23076923077,.,.
Wind,2029,953994.1841807839,39304.6153846154,.,.
Wind,2030,901524.5040508407,38950.0,.,.
Wind,2031,851940.6563280445,38657.875,.,.
Wind,2032,805083.920230002,38365.750000000015,.,.
Wind,2033,760804.3046173519,38073.62500000001,.,.
Wind,2034,718960.0678633974,37781.50000000001,.,.
Wind,2035,679417.2641309105,37489.375,.,.
CCGT,2021,1.0547470319208577e6,12863.45776031434,.,.
CCGT,2022,1.0435534628814093e6,12863.45776031434,.,.
CCGT,2023,1.0323598938419612e6,12863.45776031434,.,.
CCGT,2024,1.0181696417346126e6,12863.45776031434,.,.
CCGT,2025,1.0080019363728217e6,12863.45776031434,.,.
CCGT,2026,1.001987541027846e6,12863.45776031434,.,.
CCGT,2027,995377.2256082576,12863.45776031434,.,.
CCGT,2028,990958.0485495949,12863.45776031434,.,.
CCGT,2029,987737.4480919305,12863.45776031434,.,.
CCGT,2030,983235.1768172141,12863.45776031434,.,.
CCGT,2031,979319.65541139,12863.45776031434,.,.
CCGT,2032,975100.4685614647,12863.45776031434,.,.
CCGT,2033,970371.9652346717,12863.45776031434,.,.
CCGT,2034,966972.1654136493,12863.45776031434,.,.
CCGT,2035,964264.3160018083,12863.45776031434,.,.
CT,2021,968927.3771036323,11394.891944990175,.,.
CT,2022,964249.0157041437,11394.891944990175,.,.
CT,2023,953168.2835959523,11394.891944990175,.,.
CT,2024,936035.6065825713,11394.891944990175,.,.
CT,2025,924722.930808068,11394.891944990175,.,.
CT,2026,917898.6180212427,11394.891944990175,.,.
CT,2027,910532.7480840062,11394.891944990175,.,.
CT,2028,905725.7570940664,11394.891944990175,.,.
CT,2029,902489.2852620716,11394.891944990175,.,.
CT,2030,897990.4103336505,11394.891944990175,.,.
CT,2031,894135.1136733557,11394.891944990175,.,.
CT,2032,890010.8879475131,11394.891944990175,.,.
CT,2033,885303.7237808913,11394.891944990175,.,.
CT,2034,881901.2196216983,11394.891944990175,.,.
CT,2035,879447.8402080905,11394.891944990175,.,.
Battery,2021,1.365e6,6097.837707,4,0.0
Battery,2022,1.16025e6,5695.157422,4,0.0
Battery,2023,986212.4999999999,5292.4771359999995,4,0.0
Battery,2024,838280.6249999999,4889.79685,4,0.0
Battery,2025,712538.5312499999,4487.116564,4,0.0
Battery,2026,605657.7515624999,4320.1216509999995,4,0.0
Battery,2027,514809.0888281249,4153.126738,4,0.0
Battery,2028,437587.72550390614,3986.131825,4,0.0
Battery,2029,371949.56667832023,3819.136912,4,0.0
Battery,2030,316157.1316765722,3652.1419990000004,4,0.0
Battery,2031,268733.5619250863,3606.490224,4,0.0
Battery,2032,228423.5276363234,3560.8384490000003,4,0.0
Battery,2033,194159.9984908749,3515.186674,4,0.0
Battery,2034,165035.99871724364,3469.534899,4,0.0
Battery,2035,140280.5989096571,3423.8831240000004,4,0.0
Geo,2021,6.397333038887256e6,134740.70000000007,.,.
Geo,2022,6.297657670587702e6,133832.20000000007,.,.
Geo,2023,6.198386167139521e6,132923.7,.,.
Geo,2024,6.099518528542712e6,132015.20000000004,.,.
Geo,2025,6.001054754797277e6,131106.70000000004,.,.
Geo,2026,5.902994845903218e6,130198.20000000004,.,.
Geo,2027,5.805338801860531e6,129289.70000000004,.,.
Geo,2028,5.708086622669218e6,128381.20000000004,.,.
Geo,2029,5.611238308329277e6,127472.70000000003,.,.
Geo,2030,5.513712956551491e6,126564.20000000004,.,.
Geo,2031,5.486144391768734e6,126564.20000000004,.,.
Geo,2032,5.45871366980989e6,126564.20000000004,.,.
Geo,2033,5.431420101460841e6,126564.20000000004,.,.
Geo,2034,5.4042630009535365e6,126564.20000000004,.,.
Geo,2035,5.37724168594877e6,126564.20000000004,.,.
Old_CCGT,2020,1.0e9,12000.0,.,.
Old_CT,2020,1.0e9,12000.0,.,.
Old_Coal,2020,1.0e9,20000.0,.,.
Old_Steam,2020,1.0e9,20000.0,.,.
